{
  "table_name": "stores_cities",
  "need_translations": true,
  "backend_path_name": "stores_city",
  "backend_route_prefix": "/stores/city",
  "templates": {
    "default": {
      "standard": {
        "multicheck": true,
        "actions": {
          "edit": true,
          "delete": true
        },
        "has_tables": {
          "inner_tables": ["stores"]
        },
        "order": true,
        "status": true,
        "nested": false,
        "sortOrder": {
          "field": "order",
          "sortField": "order",
          "direction": "asc"
        }
      },
      "title": {
        "field_symbols_count": 255,
        "field_type": "string",
        "type": "text",
        "label": {"en": "Name", "ru": "Название"},
        "hint": {"en": "Name", "ru": "Название"},
        "column_type": "text-column",
        "column_class": "left",
        "sortable": true,
        "searchable": true,
        "required": true,
        "is_translated": true
      },
      "all_stores_count": {
        "column_type": "text-column",
        "label": {"en": "Count stores", "ru": "Количество магазинов"}
      }
    }
  }
}