{
    "table_name": "sliders",
    "need_translations": false,
    "backend_path_name": "slider_slider",
    "backend_route_prefix": "slider",
    "templates": {
        "default": {
            "standard": {
                "multicheck": true,
                "actions": {
                    "edit": true,
                    "delete": true
                },
                "has_tables": {
                    "inner_tables": ["slider_slides"]
                },
                "order": false,
                "status": true,
                "nested": false,
                "slugable": false,
                "desktop_mobile_images": false,
                "sortOrder": {
                    "field": "id",
                    "sortField": "id",
                    "direction": "desc"
                }
            },
            "title": {
                "field_symbols_count": 255,
                "field_type": "string",
                "type": "text",
                "label": {"en": "Name", "ru": "Название"},
                "column_type": "folder",
                "searchable": true,
                "required": true
            },
            "short_code": {
                "field_symbols_count": 255,
                "field_type": "string",
                "required": true,
                "label": {"en": "Shortcode", "ru": "Код вставки"},
                "unique": true,
                "is_translated": false,
                "column_type": "shortcode",
                "column_attributes": ["slider"],
                "column_roles": "developer"
            },
            "autoscroll": {
                "field_type": "boolean",
                "type": "checkbox",
                "label": {"en": "Auto scroll", "ru": "Автоскролл"},
                "hint": {"en": "Auto scroll", "ru": "Автоскролл"},
                "default": 0
            },
            "delay": {
                "field_type": "unsignedTinyInteger",
                "type": "number",
                "label": {"en": "Slider delay", "ru": "Количество секунд"},
                "settings": {"min": 0},
                "default": 0,
                "hint": {
                    "en": "Slides will change after the entered number of seconds.",
                    "ru": "Слайды будут меняться через введенное количество секунд"
                },
                "required": false
            },
            "sort_slides": {
                "field_type": "string",
                "required": true,
                "type":"select",
                "default": "order",
                "label":{
                    "en":"Sort slides",
                    "ru":"Сортировка"
                },
                "relation":"getFieldTypeValues"
            }
        }
    }
}