{
    "table_name": "logs_folders",
    "need_translations": false,
    "backend_path_name": "logs_folder",
    "backend_route_prefix": "/logs/folders",
    "not_table": true,
    "templates": {
        "default": {
            "standard": {
            },
            "folder": {
                "label": {"en": "Folder", "ru": "Папка"},
                "column_type": "folder",
                "column_attributes": {
                    "no_counter": true
                },
                "fillable": false
            }
        },
        "file": {
            "standard": {
            },
            "text": {
                "label": {"en": "Message", "ru": "Сообщение"},
                "column_type": "text-column",
                "fillable": false
            },
            "ip": {
                "label": {"en": "IP", "ru": "IP"},
                "column_type": "text-column",
                "fillable": false
            },
            "email": {
                "label": {"en": "E-mail", "ru": "E-mail"},
                "column_type": "text-column",
                "column_attributes": {
                    "comments" : ["impersonator_email"]
                },
                "fillable": false
            },
            "date": {
                "label": {"en": "Time", "ru": "Время"},
                "column_type": "dates",
                "fillable": false
            },
            "user_data": {
                "label": {"en": "User Data", "ru": "Данные пользователя"},
                "column_type": "json-column",
                "fillable": false
            },
            "extra": {
                "label": {"en": "Extra", "ru": "Extra"},
                "column_type": "json-column",
                "fillable": false
            }
        }
    }
}