{
  "table_name": "ecommerce_brands",
  "need_translations": true,
  "backend_path_name": "ecommerce_brand",
  "backend_route_prefix": "/ecommerce/brand",
  "templates": {
    "default": {
      "standard": {
        "multicheck": true,
        "actions": {
          "edit": true,
          "delete": true,
          "view": true
        },
        "has_tables": {
          "inner_tables": ["ecommerce_products"]
        },
        "order": true,
        "status": true,
        "nested": false,
        "slugable": true,
        "desktop_mobile_images": true,
        "sortOrder": {
          "field": "order",
          "sortField": "order",
          "direction": "asc"
        }
      },
      "title": {
        "field_type": "string",
        "field_symbols_count": 250,
        "type": "text",
        "label": {
          "en": "Title",
          "ru": "Заголовок"
        },
        "hint": {
          "en": "Title",
          "ru": "Заголовок"
        },
        "column_type": "folder",
        "column_attributes": {
          "icons": ["is_top"]
        },
        "relation": "",
        "validation": "",
        "sortable": true,
        "searchable": true,
        "required": true,
        "unique": false,
        "is_translated": true
      },
      "description": {
        "field_type": "string",
        "field_symbols_count": 500,
        "type": "text",
        "label": {
          "en": "Description",
          "ru": "Описание"
        },
        "hint": {
          "en": "Description",
          "ru": "Описание"
        },
        "relation": "",
        "validation": "",
        "sortable": false,
        "required": false,
        "unique": false,
        "is_translated": true
      },
      "is_top": {
        "field_type": "boolean",
        "type": "checkbox",
        "label": {
          "en": "Is top",
          "ru": "Топ"
        },
        "hint": {
          "en": "Is top",
          "ru": "Топ"
        },
        "relation": "",
        "default": 0,
        "validation": "",
        "required": false,
        "unique": false,
        "is_translated": false
      },
      "desktop_image": {
        "field_type": "string",
        "type": "upload-image",
        "column_type": "image-column",
        "label": {
          "en": "Desktop logo",
          "ru": "Логотип для десктопа"
        }
      },
      "mobile_image": {
        "field_type": "string",
        "type": "upload-image",
        "label": {
          "en": "Mobile logo",
          "ru": "Логотип для мобильного"
        }
      }
    }
  }
}