{
  "table_name": "ecommerce_parameters",
  "backend_path_name": "ecommerce_parameter",
  "backend_route_prefix": "/ecommerce/parameter",
  "need_translations": true,
  "templates": {
    "default": {
      "standard": {
        "multicheck": true,
        "actions": {
          "edit": true,
          "delete": true
        },
        "order": true,
        "status": false,
        "nested": false,
        "slugable": true,
        "desktop_mobile_images": false,
        "sortOrder": {
          "field": "order",
          "sortField": "order",
          "direction": "asc"
        }
      },
      "slug":{
        "validation": "not_regex:/^data$/i",
        "label": {"en": "Slug", "ru": "Уникальное имя"},
        "type": "slug",
        "required": true
      },
      "categories": {
        "column_type": "text-column",
        "label": {"en": "Cateogries", "ru": "Категории"},
        "hint": {
          "en": "Select the categories for which this option will be available or leave the field blank if no category restriction is required",
          "ru": "Выберите категории, для которых будет доступен данный параметр или оставьте поле пустым, если не требуется ограничение по категориям"
        },
        "name": "categories_titles",
        "relation": "categories",
        "type": "select-tree",
        "settings": {
          "is_multiple": "true"
        },
        "fillable": false
      },
      "title": {
        "field_type": "string",
        "type": "text",
        "label": {"en": "Title", "ru": "Заголовок"},
        "hint": {"en": "Title", "ru": "Заголовок"},
        "column_type": "text-column",
        "column_class": "left",
        "column_attributes": {
          "icons": [
            "in_filter",
            "required"
          ]
        },
        "relation": "",
        "validation": "",
        "sortable": true,
        "searchable": true,
        "required": true,
        "unique": false,
        "is_translated": true
      },
      "comment": {
        "field_type": "string",
        "type": "text",
        "label": {"en": "Comment", "ru": "Комментарий"},
        "hint": {"en": "Administrator hint", "ru": "Подсказка для администратора"},
        "column_type": "text-column",
        "column_class": "left",
        "searchable": true,
        "relation": "",
        "validation": ""
      },
      "data_type": {
        "field_type": "unsignedTinyInteger",
        "type": "select",
        "name": "type",
        "label": {"en": "Type", "ru": "Тип данных"},
        "hint": {"en": "Type", "ru": "Тип данных параметра"},
        "column_type": "conditionalFolder",
        "column_attributes": "(ыбор значения)$",
        "relation": "types",
        "validation": "",
        "sortable": false,
        "required": true,
        "searchable": true,
        "unique": false,
        "is_translated": false
      },
      "required": {
        "field_type": "boolean",
        "type": "checkbox",
        "default": 0,
        "label": {"en": "Required", "ru": "Обязательное поле"},
        "hint": {"en": "When creating a product, the parameter will be required", "ru": "При создании товара, параметр будет обязательным для заполнения"}
      },
      "in_filter": {
        "field_type": "boolean",
        "type": "checkbox",
        "default": 0,
        "label": {"en": "Filter", "ru": "Фильтр"},
        "hint": {"en": "The parameter will be displayed on the website in the filter block", "ru": "Параметр будет выводиться на сайте в блоке фильтра"},
        "relation": "",
        "validation": ""
      },
      "hidden_filter": {
        "field_type": "boolean",
        "type": "checkbox",
        "default": 0,
        "label": {"en": "Hidden filter", "ru": "Свернутый фильтр"},
        "hint": {"en": "Display a collapsed filter on a site", "ru": "Отображать на сайте фильтр в свернутом виде"}
      },
      "colored": {
        "field_type": "boolean",
        "type": "checkbox",
        "default": 0,
        "label": {"en": "Colored", "ru": "Цветовой параметр"}
      },
      "to_details": {
        "field_type": "boolean",
        "type": "checkbox",
        "default": 0,
        "label": {"en": "To details", "ru": "В детали"}
      },
      "to_versions": {
        "field_type": "boolean",
        "type": "checkbox",
        "default": 0,
        "label": {"en": "To product versions", "ru": "В варианты товаров"},
        "hint": {"en": "The parameter affects the formation of options. Only for parameters whose type is 'Multiple Choice of Values'", "ru": "Параметр влияет на формирование вариантов. Только для параметров, тип которых 'Множественный выбор значений'"}
      },
      "model": {
        "field_type": "string",
        "label": {"en": "Model", "ru": "Модель"},
        "hint": {"en": "Model", "ru": "Модель"},
        "required": false,
        "unique": false,
        "is_translated": false
      }
    },
    "info": {
      "standard": {
        "no_create": true
      },
      "title": {
        "label": {"en": "Title", "ru": "Заголовок"},
        "column_type": "folder"
      },
      "comment": {
        "label": {"en": "Comment", "ru": "Комментарий"},
        "column_type": "text-column"
      },
      "data_type": {
        "label": {"en": "Type", "ru": "Тип данных"},
        "column_type": "text-column",
        "name": "type"
      }
    }
  },
  "pivots": {
    "ecommerce_category_parameters": {
      "ids": {
        "parameter_id": {
          "table": "ecommerce_parameters",
          "onDelete": "cascade"
        }, 
        "category_id": {
          "table": "ecommerce_categories",
          "onDelete": "cascade",
          "no_foreign": true
        }
      }
    }
  }
}